{
    "extension_name": {
        "message": "Copy Tab Title",
        "description": "Extension name"
    },
    "extension_description": {
        "message": "Right click any tab and select context menu option",
        "description": "Extension description"
    },
    "copy_title": {
        "message": "Copy Tab Title",
        "description": "Tab menu item label"
    }
}
